REGULARIZACIÃ“N Y CV
…
Elastic net:

#tabla con los errores de cada valor de alpha
muestreo <- sample(1:10, size = length(train_y), replace = TRUE)
# Miramos entre los grupos de alphas.
tabla_errores_alpha <- tibble::tibble(
  alpha      = seq(0, 1, by = 0.04),
  mse_min    = NA,
  mse_1se    = NA,
  lambda_min = NA,
  lambda_1se = NA
)
tabla_errores_alpha

## # A tibble: 26 x 5
##    alpha mse_min mse_1se lambda_min lambda_1se
##    <dbl> <lgl>   <lgl>   <lgl>      <lgl>     
##  1  0    NA      NA      NA         NA        
##  2  0.04 NA      NA      NA         NA        
##  3  0.08 NA      NA      NA         NA        
##  4  0.12 NA      NA      NA         NA        
##  5  0.16 NA      NA      NA         NA        
##  6  0.2  NA      NA      NA         NA        
##  7  0.24 NA      NA      NA         NA        
##  8  0.28 NA      NA      NA         NA        
##  9  0.32 NA      NA      NA         NA        
## 10  0.36 NA      NA      NA         NA        
## # ... with 16 more rows
…
  alpha_min <- cv.glmnet(train_x, train_y, alpha = tabla_errores_alpha$alpha[i], foldid = muestreo)
  
  # Se sacan los minimun square errors y lambdas
  tabla_errores_alpha$mse_min[i]    <- alpha_min$cvm[alpha_min$lambda == alpha_min$lambda.min] #error minimo cuadrado
  tabla_errores_alpha$mse_1se[i]    <- alpha_min$cvm[alpha_min$lambda == alpha_min$lambda.1se] #lambda que minimiza el error minimo cuadrado
  tabla_errores_alpha$lambda_min[i] <- alpha_min$lambda.min #error minimo standard
  tabla_errores_alpha$lambda_1se[i] <- alpha_min$lambda.1se #lambda que minimiza el error minimo standard
}
tabla_errores_alpha <- tabla_errores_alpha %>% 
  arrange(mse_min)

tabla_errores_alpha #donde vemos que el alpha que minimiza el mse_min es = 1 lo que nos indica wue es un Lasso

## # A tibble: 26 x 5
##    alpha mse_min mse_1se lambda_min lambda_1se
##    <dbl>   <dbl>   <dbl>      <dbl>      <dbl>
##  1  1       1.09    1.15     0.0537      0.164
##  2  0.96    1.09    1.15     0.0559      0.171
##  3  0.92    1.09    1.15     0.0583      0.178
##  4  0.88    1.09    1.15     0.0610      0.186
##  5  0.84    1.09    1.16     0.0639      0.195
##  6  0.8     1.09    1.16     0.0671      0.205
##  7  0.76    1.09    1.15     0.0706      0.197
##  8  0.72    1.09    1.15     0.0745      0.207
##  9  0.68    1.09    1.15     0.0789      0.220
## 10  0.64    1.09    1.15     0.0839      0.233
## # ... with 16 more rows
…
